module api-service

go 1.17

require (
	github.com/caarlos0/env/v6 v6.7.2
	github.com/georgysavva/scany v0.2.9
	github.com/gofrs/uuid v4.1.0+incompatible
	github.com/gorilla/mux v1.8.0
	github.com/jackc/pgtype v1.8.1
	github.com/jackc/pgx/v4 v4.13.0
	github.com/joho/godotenv v1.4.0
	github.com/justinas/alice v1.2.0
	github.com/pkg/errors v0.9.1
	github.com/rs/zerolog v1.26.0
	github.com/rubenv/sql-migrate v0.0.0-20211023115951-9f02b1e13857
)

require (
	github.com/davecgh/go-spew v1.1.1 // indirect
	github.com/jackc/chunkreader/v2 v2.0.1 // indirect
	github.com/jackc/pgconn v1.10.0 // indirect
	github.com/jackc/pgio v1.0.0 // indirect
	github.com/jackc/pgpassfile v1.0.0 // indirect
	github.com/jackc/pgproto3/v2 v2.1.1 // indirect
	github.com/jackc/pgservicefile v0.0.0-20200714003250-2b9c44734f2b // indirect
	github.com/jackc/puddle v1.1.3 // indirect
	github.com/pmezard/go-difflib v1.0.0 // indirect
	github.com/rs/xid v1.3.0 // indirect
	github.com/stretchr/objx v0.2.0 // indirect
	github.com/stretchr/testify v1.7.0 // indirect
	github.com/ziutek/mymysql v1.5.4 // indirect
	golang.org/x/crypto v0.0.0-20210711020723-a769d52b0f97 // indirect
	golang.org/x/text v0.3.6 // indirect
	gopkg.in/gorp.v1 v1.7.2 // indirect
	gopkg.in/yaml.v3 v3.0.0-20200313102051-9f266ea9e77c // indirect
)
